{
  "comments": { "pos": { "x": 0, "y": 0, "w": 0, "h": 0 }, "list": [] },
  "links": { "pos": { "x": 0, "y": 0, "w": 0, "h": 0 }, "list": [] },
  "votes": { "pos": { "x": 0, "y": 0, "w": 0, "h": 0 }, "list": [] },
  "videos": { "pos": { "x": 0, "y": 0, "w": 0, "h": 0 }, "list": [] },
  "files": { "pos": { "x": 0, "y": 0, "w": 0, "h": 0 }, "list": [] },
  "pos": { "x": 0, "y": 0, "w": 0, "h": 0 },
  "public": false,
  "allowed": [],
  "owner": "",
  "description": "Chicago Crime",
  "weights": { "cost": 0, "time": 0, "resources": 0 },
  "emojis": [],
  "images": [],
  "causes": [
    {
      "comments": { "pos": { "x": 0, "y": 0, "w": 0, "h": 0 }, "list": [] },
      "links": { "pos": { "x": 0, "y": 0, "w": 0, "h": 0 }, "list": [] },
      "votes": { "pos": { "x": 0, "y": 0, "w": 0, "h": 0 }, "list": [] },
      "videos": { "pos": { "x": 0, "y": 0, "w": 0, "h": 0 }, "list": [] },
      "files": { "pos": { "x": 0, "y": 0, "w": 0, "h": 0 }, "list": [] },
      "pos": { "x": 0, "y": 0, "w": 0, "h": 0 },
      "description": "Drugs",
      "emojis": [],
      "images": [],
      "ideas": [
        {
          "comments": { "pos": { "x": 0, "y": 0, "w": 0, "h": 0 }, "list": [] },
          "links": { "pos": { "x": 0, "y": 0, "w": 0, "h": 0 }, "list": [] },
          "votes": { "pos": { "x": 0, "y": 0, "w": 0, "h": 0 }, "list": [] },
          "videos": { "pos": { "x": 0, "y": 0, "w": 0, "h": 0 }, "list": [] },
          "files": { "pos": { "x": 0, "y": 0, "w": 0, "h": 0 }, "list": [] },
          "pos": { "x": 0, "y": 0, "w": 0, "h": 0 },
          "calculus": {
            "pos": { "x": 0, "y": 0, "w": 0, "h": 0 },
            "weights": { "cost": 0, "time": 0, "resources": 0 },
            "rating": { "cost": 0, "time": 0, "resources": 0 },
            "total": 0
          },
          "description": "Legalize marijuana",
          "emojis": [],
          "images": []
        }
      ]
    },
    {
      "comments": { "pos": { "x": 0, "y": 0, "w": 0, "h": 0 }, "list": [] },
      "links": { "pos": { "x": 0, "y": 0, "w": 0, "h": 0 }, "list": [] },
      "votes": { "pos": { "x": 0, "y": 0, "w": 0, "h": 0 }, "list": [] },
      "videos": { "pos": { "x": 0, "y": 0, "w": 0, "h": 0 }, "list": [] },
      "files": { "pos": { "x": 0, "y": 0, "w": 0, "h": 0 }, "list": [] },
      "pos": { "x": 0, "y": 0, "w": 0, "h": 0 },
      "description": "Equipment",
      "emojis": [],
      "images": [],
      "ideas": [
        {
          "comments": { "pos": { "x": 0, "y": 0, "w": 0, "h": 0 }, "list": [] },
          "links": { "pos": { "x": 0, "y": 0, "w": 0, "h": 0 }, "list": [] },
          "votes": { "pos": { "x": 0, "y": 0, "w": 0, "h": 0 }, "list": [] },
          "videos": { "pos": { "x": 0, "y": 0, "w": 0, "h": 0 }, "list": [] },
          "files": { "pos": { "x": 0, "y": 0, "w": 0, "h": 0 }, "list": [] },
          "pos": { "x": 0, "y": 0, "w": 0, "h": 0 },
          "calculus": {
            "pos": { "x": 0, "y": 0, "w": 0, "h": 0 },
            "weights": { "cost": 0, "time": 0, "resources": 0 },
            "rating": { "cost": 0, "time": 0, "resources": 0 },
            "total": 0
          },
          "description": "Provide more non-lethal equipment",
          "emojis": [],
          "images": []
        }
      ]
    },
    {
      "comments": { "pos": { "x": 0, "y": 0, "w": 0, "h": 0 }, "list": [] },
      "links": { "pos": { "x": 0, "y": 0, "w": 0, "h": 0 }, "list": [] },
      "votes": { "pos": { "x": 0, "y": 0, "w": 0, "h": 0 }, "list": [] },
      "videos": { "pos": { "x": 0, "y": 0, "w": 0, "h": 0 }, "list": [] },
      "files": { "pos": { "x": 0, "y": 0, "w": 0, "h": 0 }, "list": [] },
      "pos": { "x": 0, "y": 0, "w": 0, "h": 0 },
      "description": "Gangs",
      "emojis": [],
      "images": [],
      "ideas": [
        {
          "comments": { "pos": { "x": 0, "y": 0, "w": 0, "h": 0 }, "list": [] },
          "links": { "pos": { "x": 0, "y": 0, "w": 0, "h": 0 }, "list": [] },
          "votes": { "pos": { "x": 0, "y": 0, "w": 0, "h": 0 }, "list": [] },
          "videos": { "pos": { "x": 0, "y": 0, "w": 0, "h": 0 }, "list": [] },
          "files": { "pos": { "x": 0, "y": 0, "w": 0, "h": 0 }, "list": [] },
          "pos": { "x": 0, "y": 0, "w": 0, "h": 0 },
          "calculus": {
            "pos": { "x": 0, "y": 0, "w": 0, "h": 0 },
            "weights": { "cost": 0, "time": 0, "resources": 0 },
            "rating": { "cost": 0, "time": 0, "resources": 0 },
            "total": 0
          },
          "description": "Gang-banger list",
          "emojis": [],
          "images": []
        }
      ]
    },
    {
      "comments": { "pos": { "x": 0, "y": 0, "w": 0, "h": 0 }, "list": [] },
      "links": { "pos": { "x": 0, "y": 0, "w": 0, "h": 0 }, "list": [] },
      "votes": { "pos": { "x": 0, "y": 0, "w": 0, "h": 0 }, "list": [] },
      "videos": { "pos": { "x": 0, "y": 0, "w": 0, "h": 0 }, "list": [] },
      "files": { "pos": { "x": 0, "y": 0, "w": 0, "h": 0 }, "list": [] },
      "pos": { "x": 0, "y": 0, "w": 0, "h": 0 },
      "description": "Guns",
      "emojis": [],
      "images": [],
      "ideas": [
        {
          "comments": { "pos": { "x": 0, "y": 0, "w": 0, "h": 0 }, "list": [] },
          "links": { "pos": { "x": 0, "y": 0, "w": 0, "h": 0 }, "list": [] },
          "votes": { "pos": { "x": 0, "y": 0, "w": 0, "h": 0 }, "list": [] },
          "videos": { "pos": { "x": 0, "y": 0, "w": 0, "h": 0 }, "list": [] },
          "files": { "pos": { "x": 0, "y": 0, "w": 0, "h": 0 }, "list": [] },
          "pos": { "x": 0, "y": 0, "w": 0, "h": 0 },
          "calculus": {
            "pos": { "x": 0, "y": 0, "w": 0, "h": 0 },
            "weights": { "cost": 0, "time": 0, "resources": 0 },
            "rating": { "cost": 0, "time": 0, "resources": 0 },
            "total": 0
          },
          "description": "Crackdown on Straw-sales",
          "emojis": [],
          "images": []
        }
      ]
    },
    {
      "comments": { "pos": { "x": 0, "y": 0, "w": 0, "h": 0 }, "list": [] },
      "links": { "pos": { "x": 0, "y": 0, "w": 0, "h": 0 }, "list": [] },
      "votes": { "pos": { "x": 0, "y": 0, "w": 0, "h": 0 }, "list": [] },
      "videos": { "pos": { "x": 0, "y": 0, "w": 0, "h": 0 }, "list": [] },
      "files": { "pos": { "x": 0, "y": 0, "w": 0, "h": 0 }, "list": [] },
      "pos": { "x": 0, "y": 0, "w": 0, "h": 0 },
      "description": "Judiciary",
      "emojis": [],
      "images": [],
      "ideas": [
        {
          "comments": { "pos": { "x": 0, "y": 0, "w": 0, "h": 0 }, "list": [] },
          "links": { "pos": { "x": 0, "y": 0, "w": 0, "h": 0 }, "list": [] },
          "votes": { "pos": { "x": 0, "y": 0, "w": 0, "h": 0 }, "list": [] },
          "videos": { "pos": { "x": 0, "y": 0, "w": 0, "h": 0 }, "list": [] },
          "files": { "pos": { "x": 0, "y": 0, "w": 0, "h": 0 }, "list": [] },
          "pos": { "x": 0, "y": 0, "w": 0, "h": 0 },
          "calculus": {
            "pos": { "x": 0, "y": 0, "w": 0, "h": 0 },
            "weights": { "cost": 0, "time": 0, "resources": 0 },
            "rating": { "cost": 0, "time": 0, "resources": 0 },
            "total": 0
          },
          "description": "Build credibility with Judiciary",
          "emojis": [],
          "images": []
        }
      ]
    },
    {
      "comments": { "pos": { "x": 0, "y": 0, "w": 0, "h": 0 }, "list": [] },
      "links": { "pos": { "x": 0, "y": 0, "w": 0, "h": 0 }, "list": [] },
      "votes": { "pos": { "x": 0, "y": 0, "w": 0, "h": 0 }, "list": [] },
      "videos": { "pos": { "x": 0, "y": 0, "w": 0, "h": 0 }, "list": [] },
      "files": { "pos": { "x": 0, "y": 0, "w": 0, "h": 0 }, "list": [] },
      "pos": { "x": 0, "y": 0, "w": 0, "h": 0 },
      "description": "Men- their Quality",
      "emojis": [],
      "images": [],
      "ideas": [
        {
          "comments": { "pos": { "x": 0, "y": 0, "w": 0, "h": 0 }, "list": [] },
          "links": { "pos": { "x": 0, "y": 0, "w": 0, "h": 0 }, "list": [] },
          "votes": { "pos": { "x": 0, "y": 0, "w": 0, "h": 0 }, "list": [] },
          "videos": { "pos": { "x": 0, "y": 0, "w": 0, "h": 0 }, "list": [] },
          "files": { "pos": { "x": 0, "y": 0, "w": 0, "h": 0 }, "list": [] },
          "pos": { "x": 0, "y": 0, "w": 0, "h": 0 },
          "calculus": {
            "pos": { "x": 0, "y": 0, "w": 0, "h": 0 },
            "weights": { "cost": 0, "time": 0, "resources": 0 },
            "rating": { "cost": 0, "time": 0, "resources": 0 },
            "total": 0
          },
          "description": "Hire staff with positive childhood",
          "emojis": [],
          "images": []
        }
      ]
    },
    {
      "comments": { "pos": { "x": 0, "y": 0, "w": 0, "h": 0 }, "list": [] },
      "links": { "pos": { "x": 0, "y": 0, "w": 0, "h": 0 }, "list": [] },
      "votes": { "pos": { "x": 0, "y": 0, "w": 0, "h": 0 }, "list": [] },
      "videos": { "pos": { "x": 0, "y": 0, "w": 0, "h": 0 }, "list": [] },
      "files": { "pos": { "x": 0, "y": 0, "w": 0, "h": 0 }, "list": [] },
      "pos": { "x": 0, "y": 0, "w": 0, "h": 0 },
      "description": "Money-Budgetary Allocation",
      "emojis": [],
      "images": [],
      "ideas": [
        {
          "comments": { "pos": { "x": 0, "y": 0, "w": 0, "h": 0 }, "list": [] },
          "links": { "pos": { "x": 0, "y": 0, "w": 0, "h": 0 }, "list": [] },
          "votes": { "pos": { "x": 0, "y": 0, "w": 0, "h": 0 }, "list": [] },
          "videos": { "pos": { "x": 0, "y": 0, "w": 0, "h": 0 }, "list": [] },
          "files": { "pos": { "x": 0, "y": 0, "w": 0, "h": 0 }, "list": [] },
          "pos": { "x": 0, "y": 0, "w": 0, "h": 0 },
          "calculus": {
            "pos": { "x": 0, "y": 0, "w": 0, "h": 0 },
            "weights": { "cost": 0, "time": 0, "resources": 0 },
            "rating": { "cost": 0, "time": 0, "resources": 0 },
            "total": 0
          },
          "description": "Work with Pols for more money",
          "emojis": [],
          "images": []
        }
      ]
    },
    {
      "comments": { "pos": { "x": 0, "y": 0, "w": 0, "h": 0 }, "list": [] },
      "links": { "pos": { "x": 0, "y": 0, "w": 0, "h": 0 }, "list": [] },
      "votes": { "pos": { "x": 0, "y": 0, "w": 0, "h": 0 }, "list": [] },
      "videos": { "pos": { "x": 0, "y": 0, "w": 0, "h": 0 }, "list": [] },
      "files": { "pos": { "x": 0, "y": 0, "w": 0, "h": 0 }, "list": [] },
      "pos": { "x": 0, "y": 0, "w": 0, "h": 0 },
      "description": "Overall Strategy",
      "emojis": [],
      "images": [],
      "ideas": [
        {
          "comments": { "pos": { "x": 0, "y": 0, "w": 0, "h": 0 }, "list": [] },
          "links": { "pos": { "x": 0, "y": 0, "w": 0, "h": 0 }, "list": [] },
          "votes": { "pos": { "x": 0, "y": 0, "w": 0, "h": 0 }, "list": [] },
          "videos": { "pos": { "x": 0, "y": 0, "w": 0, "h": 0 }, "list": [] },
          "files": { "pos": { "x": 0, "y": 0, "w": 0, "h": 0 }, "list": [] },
          "pos": { "x": 0, "y": 0, "w": 0, "h": 0 },
          "calculus": {
            "pos": { "x": 0, "y": 0, "w": 0, "h": 0 },
            "weights": { "cost": 0, "time": 0, "resources": 0 },
            "rating": { "cost": 0, "time": 0, "resources": 0 },
            "total": 0
          },
          "description": "Focus more on prevention",
          "emojis": [],
          "images": []
        }
      ]
    },
    {
      "comments": { "pos": { "x": 0, "y": 0, "w": 0, "h": 0 }, "list": [] },
      "links": { "pos": { "x": 0, "y": 0, "w": 0, "h": 0 }, "list": [] },
      "votes": { "pos": { "x": 0, "y": 0, "w": 0, "h": 0 }, "list": [] },
      "videos": { "pos": { "x": 0, "y": 0, "w": 0, "h": 0 }, "list": [] },
      "files": { "pos": { "x": 0, "y": 0, "w": 0, "h": 0 }, "list": [] },
      "pos": { "x": 0, "y": 0, "w": 0, "h": 0 },
      "description": "Overall Systems",
      "emojis": [],
      "images": [],
      "ideas": []
    },
    {
      "comments": { "pos": { "x": 0, "y": 0, "w": 0, "h": 0 }, "list": [] },
      "links": { "pos": { "x": 0, "y": 0, "w": 0, "h": 0 }, "list": [] },
      "votes": { "pos": { "x": 0, "y": 0, "w": 0, "h": 0 }, "list": [] },
      "videos": { "pos": { "x": 0, "y": 0, "w": 0, "h": 0 }, "list": [] },
      "files": { "pos": { "x": 0, "y": 0, "w": 0, "h": 0 }, "list": [] },
      "pos": { "x": 0, "y": 0, "w": 0, "h": 0 },
      "description": "Police Management",
      "emojis": [],
      "images": [],
      "ideas": [
        {
          "comments": { "pos": { "x": 0, "y": 0, "w": 0, "h": 0 }, "list": [] },
          "links": { "pos": { "x": 0, "y": 0, "w": 0, "h": 0 }, "list": [] },
          "votes": { "pos": { "x": 0, "y": 0, "w": 0, "h": 0 }, "list": [] },
          "videos": { "pos": { "x": 0, "y": 0, "w": 0, "h": 0 }, "list": [] },
          "files": { "pos": { "x": 0, "y": 0, "w": 0, "h": 0 }, "list": [] },
          "pos": { "x": 0, "y": 0, "w": 0, "h": 0 },
          "calculus": {
            "pos": { "x": 0, "y": 0, "w": 0, "h": 0 },
            "weights": { "cost": 0, "time": 0, "resources": 0 },
            "rating": { "cost": 0, "time": 0, "resources": 0 },
            "total": 0
          },
          "description": "Teach management skills",
          "emojis": [],
          "images": []
        }
      ]
    },
    {
      "comments": { "pos": { "x": 0, "y": 0, "w": 0, "h": 0 }, "list": [] },
      "links": { "pos": { "x": 0, "y": 0, "w": 0, "h": 0 }, "list": [] },
      "votes": { "pos": { "x": 0, "y": 0, "w": 0, "h": 0 }, "list": [] },
      "videos": { "pos": { "x": 0, "y": 0, "w": 0, "h": 0 }, "list": [] },
      "files": { "pos": { "x": 0, "y": 0, "w": 0, "h": 0 }, "list": [] },
      "pos": { "x": 0, "y": 0, "w": 0, "h": 0 },
      "description": "Police Oversight",
      "emojis": [],
      "images": [],
      "ideas": [
        {
          "comments": { "pos": { "x": 0, "y": 0, "w": 0, "h": 0 }, "list": [] },
          "links": { "pos": { "x": 0, "y": 0, "w": 0, "h": 0 }, "list": [] },
          "votes": { "pos": { "x": 0, "y": 0, "w": 0, "h": 0 }, "list": [] },
          "videos": { "pos": { "x": 0, "y": 0, "w": 0, "h": 0 }, "list": [] },
          "files": { "pos": { "x": 0, "y": 0, "w": 0, "h": 0 }, "list": [] },
          "pos": { "x": 0, "y": 0, "w": 0, "h": 0 },
          "calculus": {
            "pos": { "x": 0, "y": 0, "w": 0, "h": 0 },
            "weights": { "cost": 0, "time": 0, "resources": 0 },
            "rating": { "cost": 0, "time": 0, "resources": 0 },
            "total": 0
          },
          "description": "Improve oversight",
          "emojis": [],
          "images": []
        }
      ]
    },
    {
      "comments": { "pos": { "x": 0, "y": 0, "w": 0, "h": 0 }, "list": [] },
      "links": { "pos": { "x": 0, "y": 0, "w": 0, "h": 0 }, "list": [] },
      "votes": { "pos": { "x": 0, "y": 0, "w": 0, "h": 0 }, "list": [] },
      "videos": { "pos": { "x": 0, "y": 0, "w": 0, "h": 0 }, "list": [] },
      "files": { "pos": { "x": 0, "y": 0, "w": 0, "h": 0 }, "list": [] },
      "pos": { "x": 0, "y": 0, "w": 0, "h": 0 },
      "description": "Policing Methods",
      "emojis": [],
      "images": [],
      "ideas": [
        {
          "comments": { "pos": { "x": 0, "y": 0, "w": 0, "h": 0 }, "list": [] },
          "links": { "pos": { "x": 0, "y": 0, "w": 0, "h": 0 }, "list": [] },
          "votes": { "pos": { "x": 0, "y": 0, "w": 0, "h": 0 }, "list": [] },
          "videos": { "pos": { "x": 0, "y": 0, "w": 0, "h": 0 }, "list": [] },
          "files": { "pos": { "x": 0, "y": 0, "w": 0, "h": 0 }, "list": [] },
          "pos": { "x": 0, "y": 0, "w": 0, "h": 0 },
          "calculus": {
            "pos": { "x": 0, "y": 0, "w": 0, "h": 0 },
            "weights": { "cost": 0, "time": 0, "resources": 0 },
            "rating": { "cost": 0, "time": 0, "resources": 0 },
            "total": 0
          },
          "description": "Building more trust with community",
          "emojis": [],
          "images": []
        }
      ]
    },
    {
      "comments": { "pos": { "x": 0, "y": 0, "w": 0, "h": 0 }, "list": [] },
      "links": { "pos": { "x": 0, "y": 0, "w": 0, "h": 0 }, "list": [] },
      "votes": { "pos": { "x": 0, "y": 0, "w": 0, "h": 0 }, "list": [] },
      "videos": { "pos": { "x": 0, "y": 0, "w": 0, "h": 0 }, "list": [] },
      "files": { "pos": { "x": 0, "y": 0, "w": 0, "h": 0 }, "list": [] },
      "pos": { "x": 0, "y": 0, "w": 0, "h": 0 },
      "description": "Politics",
      "emojis": [],
      "images": [],
      "ideas": [
        {
          "comments": { "pos": { "x": 0, "y": 0, "w": 0, "h": 0 }, "list": [] },
          "links": { "pos": { "x": 0, "y": 0, "w": 0, "h": 0 }, "list": [] },
          "votes": { "pos": { "x": 0, "y": 0, "w": 0, "h": 0 }, "list": [] },
          "videos": { "pos": { "x": 0, "y": 0, "w": 0, "h": 0 }, "list": [] },
          "files": { "pos": { "x": 0, "y": 0, "w": 0, "h": 0 }, "list": [] },
          "pos": { "x": 0, "y": 0, "w": 0, "h": 0 },
          "calculus": {
            "pos": { "x": 0, "y": 0, "w": 0, "h": 0 },
            "weights": { "cost": 0, "time": 0, "resources": 0 },
            "rating": { "cost": 0, "time": 0, "resources": 0 },
            "total": 0
          },
          "description": "Sensitize pols to policing challenges",
          "emojis": [],
          "images": []
        }
      ]
    },
    {
      "comments": { "pos": { "x": 0, "y": 0, "w": 0, "h": 0 }, "list": [] },
      "links": { "pos": { "x": 0, "y": 0, "w": 0, "h": 0 }, "list": [] },
      "votes": { "pos": { "x": 0, "y": 0, "w": 0, "h": 0 }, "list": [] },
      "videos": { "pos": { "x": 0, "y": 0, "w": 0, "h": 0 }, "list": [] },
      "files": { "pos": { "x": 0, "y": 0, "w": 0, "h": 0 }, "list": [] },
      "pos": { "x": 0, "y": 0, "w": 0, "h": 0 },
      "description": "Poverty",
      "emojis": [],
      "images": [],
      "ideas": [
        {
          "comments": { "pos": { "x": 0, "y": 0, "w": 0, "h": 0 }, "list": [] },
          "links": { "pos": { "x": 0, "y": 0, "w": 0, "h": 0 }, "list": [] },
          "votes": { "pos": { "x": 0, "y": 0, "w": 0, "h": 0 }, "list": [] },
          "videos": { "pos": { "x": 0, "y": 0, "w": 0, "h": 0 }, "list": [] },
          "files": { "pos": { "x": 0, "y": 0, "w": 0, "h": 0 }, "list": [] },
          "pos": { "x": 0, "y": 0, "w": 0, "h": 0 },
          "calculus": {
            "pos": { "x": 0, "y": 0, "w": 0, "h": 0 },
            "weights": { "cost": 0, "time": 0, "resources": 0 },
            "rating": { "cost": 0, "time": 0, "resources": 0 },
            "total": 0
          },
          "description": "Contribute to reduction in crime",
          "emojis": [],
          "images": []
        }
      ]
    },
    {
      "comments": { "pos": { "x": 0, "y": 0, "w": 0, "h": 0 }, "list": [] },
      "links": { "pos": { "x": 0, "y": 0, "w": 0, "h": 0 }, "list": [] },
      "votes": { "pos": { "x": 0, "y": 0, "w": 0, "h": 0 }, "list": [] },
      "videos": { "pos": { "x": 0, "y": 0, "w": 0, "h": 0 }, "list": [] },
      "files": { "pos": { "x": 0, "y": 0, "w": 0, "h": 0 }, "list": [] },
      "pos": { "x": 0, "y": 0, "w": 0, "h": 0 },
      "description": "Public relations",
      "emojis": [],
      "images": [],
      "ideas": [
        {
          "comments": { "pos": { "x": 0, "y": 0, "w": 0, "h": 0 }, "list": [] },
          "links": { "pos": { "x": 0, "y": 0, "w": 0, "h": 0 }, "list": [] },
          "votes": { "pos": { "x": 0, "y": 0, "w": 0, "h": 0 }, "list": [] },
          "videos": { "pos": { "x": 0, "y": 0, "w": 0, "h": 0 }, "list": [] },
          "files": { "pos": { "x": 0, "y": 0, "w": 0, "h": 0 }, "list": [] },
          "pos": { "x": 0, "y": 0, "w": 0, "h": 0 },
          "calculus": {
            "pos": { "x": 0, "y": 0, "w": 0, "h": 0 },
            "weights": { "cost": 0, "time": 0, "resources": 0 },
            "rating": { "cost": 0, "time": 0, "resources": 0 },
            "total": 0
          },
          "description": "Be more open with Media/Public",
          "emojis": [],
          "images": []
        }
      ]
    },
    {
      "comments": { "pos": { "x": 0, "y": 0, "w": 0, "h": 0 }, "list": [] },
      "links": { "pos": { "x": 0, "y": 0, "w": 0, "h": 0 }, "list": [] },
      "votes": { "pos": { "x": 0, "y": 0, "w": 0, "h": 0 }, "list": [] },
      "videos": { "pos": { "x": 0, "y": 0, "w": 0, "h": 0 }, "list": [] },
      "files": { "pos": { "x": 0, "y": 0, "w": 0, "h": 0 }, "list": [] },
      "pos": { "x": 0, "y": 0, "w": 0, "h": 0 },
      "description": "Race relations",
      "emojis": [],
      "images": [],
      "ideas": [
        {
          "comments": { "pos": { "x": 0, "y": 0, "w": 0, "h": 0 }, "list": [] },
          "links": { "pos": { "x": 0, "y": 0, "w": 0, "h": 0 }, "list": [] },
          "votes": { "pos": { "x": 0, "y": 0, "w": 0, "h": 0 }, "list": [] },
          "videos": { "pos": { "x": 0, "y": 0, "w": 0, "h": 0 }, "list": [] },
          "files": { "pos": { "x": 0, "y": 0, "w": 0, "h": 0 }, "list": [] },
          "pos": { "x": 0, "y": 0, "w": 0, "h": 0 },
          "calculus": {
            "pos": { "x": 0, "y": 0, "w": 0, "h": 0 },
            "weights": { "cost": 0, "time": 0, "resources": 0 },
            "rating": { "cost": 0, "time": 0, "resources": 0 },
            "total": 0
          },
          "description": "Sensitize cops to race relations",
          "emojis": [],
          "images": []
        }
      ]
    },
    {
      "comments": { "pos": { "x": 0, "y": 0, "w": 0, "h": 0 }, "list": [] },
      "links": { "pos": { "x": 0, "y": 0, "w": 0, "h": 0 }, "list": [] },
      "votes": { "pos": { "x": 0, "y": 0, "w": 0, "h": 0 }, "list": [] },
      "videos": { "pos": { "x": 0, "y": 0, "w": 0, "h": 0 }, "list": [] },
      "files": { "pos": { "x": 0, "y": 0, "w": 0, "h": 0 }, "list": [] },
      "pos": { "x": 0, "y": 0, "w": 0, "h": 0 },
      "description": "Technology",
      "emojis": [],
      "images": [],
      "ideas": [
        {
          "comments": { "pos": { "x": 0, "y": 0, "w": 0, "h": 0 }, "list": [] },
          "links": { "pos": { "x": 0, "y": 0, "w": 0, "h": 0 }, "list": [] },
          "votes": { "pos": { "x": 0, "y": 0, "w": 0, "h": 0 }, "list": [] },
          "videos": { "pos": { "x": 0, "y": 0, "w": 0, "h": 0 }, "list": [] },
          "files": { "pos": { "x": 0, "y": 0, "w": 0, "h": 0 }, "list": [] },
          "pos": { "x": 0, "y": 0, "w": 0, "h": 0 },
          "calculus": {
            "pos": { "x": 0, "y": 0, "w": 0, "h": 0 },
            "weights": { "cost": 0, "time": 0, "resources": 0 },
            "rating": { "cost": 0, "time": 0, "resources": 0 },
            "total": 0
          },
          "description": "ShotSpotter technology",
          "emojis": [],
          "images": []
        }
      ]
    },
    {
      "comments": { "pos": { "x": 0, "y": 0, "w": 0, "h": 0 }, "list": [] },
      "links": { "pos": { "x": 0, "y": 0, "w": 0, "h": 0 }, "list": [] },
      "votes": { "pos": { "x": 0, "y": 0, "w": 0, "h": 0 }, "list": [] },
      "videos": { "pos": { "x": 0, "y": 0, "w": 0, "h": 0 }, "list": [] },
      "files": { "pos": { "x": 0, "y": 0, "w": 0, "h": 0 }, "list": [] },
      "pos": { "x": 0, "y": 0, "w": 0, "h": 0 },
      "description": "Training-Police",
      "emojis": [],
      "images": [],
      "ideas": [
        {
          "comments": { "pos": { "x": 0, "y": 0, "w": 0, "h": 0 }, "list": [] },
          "links": { "pos": { "x": 0, "y": 0, "w": 0, "h": 0 }, "list": [] },
          "votes": { "pos": { "x": 0, "y": 0, "w": 0, "h": 0 }, "list": [] },
          "videos": { "pos": { "x": 0, "y": 0, "w": 0, "h": 0 }, "list": [] },
          "files": { "pos": { "x": 0, "y": 0, "w": 0, "h": 0 }, "list": [] },
          "pos": { "x": 0, "y": 0, "w": 0, "h": 0 },
          "calculus": {
            "pos": { "x": 0, "y": 0, "w": 0, "h": 0 },
            "weights": { "cost": 0, "time": 0, "resources": 0 },
            "rating": { "cost": 0, "time": 0, "resources": 0 },
            "total": 0
          },
          "description": "Trained to be less trigger-happy",
          "emojis": [],
          "images": []
        }
      ]
    }
  ]
}
